tidyr, stringr, and lubridate
…
Each variable is in its own column

Each case is in its own row

Each value is in its own cell

Here’s a simple example of a tidy data set (I’m slicing out some specific columns from the imported race data):

library(dplyr)

race %>% 
  filter(State=="CA") %>% 
  select(Date, State, Deaths_Total, Deaths_Black)

## # A tibble: 67 x 4
##        Date State Deaths_Total Deaths_Black
##       <dbl> <chr>        <dbl>        <dbl>
##  1 20201129 CA           19189         1388
##  2 20201125 CA           18875         1373
##  3 20201122 CA           18676         1369
##  4 20201118 CA           18360         1346
##  5 20201115 CA           18253         1341
##  6 20201111 CA           18070         1331
##  7 20201108 CA           17939         1320
##  8 20201104 CA           17752         1316
##  9 20201101 CA           17667         1308
## 10 20201028 CA           17475         1288
## # … with 57 more rows
…
